{
    "$schema": "https://docs.renovatebot.com/renovate-schema.json",
    "extends": ["config:recommended"],
    "prConcurrentLimit": 4,
    "branchPrefix": "fix/TE-000-",
    "commitMessagePrefix": "fix: ⬆️ TE-000 ",
    "groupName": "all",
    "osvVulnerabilityAlerts": true,
    "assignees": ["monisnap-edouard", "monisnap-jonathan", "monisnap-timothee-dieu", "monisnap-jeremie", "monisnap-max"],
    "packageRules": [
      {
        "packagePatterns": ["*"],
        "enabled": true
      }
    ],
    "vulnerabilityAlerts": {
      "enabled": true
    }
  }